﻿Log file open, 10/26/17 23:02:40
LogInit:Display: Running engine for game: Jogo_simounao2
LogPlatformFile: Not using cached read wrapper
LogInit:Display: RandInit(697201391) SRandInit(697201391).
LogTaskGraph: Started task graph with 5 named threads and 8 total threads with 1 sets of task threads.
LogStats: Stats thread started at 0.080562
LogInit: Using libcurl 7.47.1
LogInit:  - built for x86_64-pc-win32
LogInit:  - supports SSL with OpenSSL/1.0.2g
LogInit:  - supports HTTP deflate (compression) using libz 1.2.8
LogInit:  - other features:
LogInit:      CURL_VERSION_SSL
LogInit:      CURL_VERSION_LIBZ
LogInit:      CURL_VERSION_IPV6
LogInit:      CURL_VERSION_ASYNCHDNS
LogInit:      CURL_VERSION_LARGEFILE
LogInit:      CURL_VERSION_IDN
LogInit:  CurlRequestOptions (configurable via config and command line):
LogInit:  - bVerifyPeer = false  - Libcurl will NOT verify peer certificate
LogInit:  - bUseHttpProxy = false  - Libcurl will NOT use HTTP proxy
LogInit:  - bDontReuseConnections = false  - Libcurl will reuse connections
LogInit:  - CertBundlePath = nullptr  - Libcurl will use whatever was configured at build time.
LogInit: Build: ++UE4+Release-4.16-CL-3514769
LogInit: Engine Version: 4.16.2-3514769+++UE4+Release-4.16
LogInit: Compatible Engine Version: 4.16.0-3452394+++UE4+Release-4.16
LogInit: Net CL: 3452394
LogDevObjectVersion: Number of dev versions registered: 16
LogDevObjectVersion:   Dev-Blueprints (B0D832E4-1F89-4F0D-ACCF-7EB736FD4AA2): 9
LogDevObjectVersion:   Dev-Build (E1C64328-A22C-4D53-A36C-8E866417BD8C): 0
LogDevObjectVersion:   Dev-Core (375EC13C-06E4-48FB-B500-84F0262A717E): 2
LogDevObjectVersion:   Dev-Editor (E4B068ED-F494-42E9-A231-DA0B2E46BB41): 17
LogDevObjectVersion:   Dev-Framework (CFFC743F-43B0-4480-9391-14DF171D2073): 23
LogDevObjectVersion:   Dev-Mobile (B02B49B5-BB20-44E9-A304-32B752E40360): 0
LogDevObjectVersion:   Dev-Networking (A4E4105C-59A1-49B5-A7C5-40C4547EDFEE): 0
LogDevObjectVersion:   Dev-Online (39C831C9-5AE6-47DC-9A44-9C173E1C8E7C): 0
LogDevObjectVersion:   Dev-Physics (78F01B33-EBEA-4F98-B9B4-84EACCB95AA2): 0
LogDevObjectVersion:   Dev-Platform (6631380F-2D4D-43E0-8009-CF276956A95A): 0
LogDevObjectVersion:   Dev-Rendering (12F88B9F-8875-4AFC-A67C-D90C383ABD29): 15
LogDevObjectVersion:   Dev-Sequencer (7B5AE74C-D270-4C10-A958-57980B212A5A): 4
LogDevObjectVersion:   Dev-VR (D7296918-1DD6-4BDD-9DE2-64A83CC13884): 0
LogDevObjectVersion:   Dev-LoadTimes (C2A15278-BFE7-4AFE-6C17-90FF531DF755): 1
LogDevObjectVersion:   Private-Geometry (6EACA3D4-40EC-4CC1-B786-8BED09428FC5): 1
LogDevObjectVersion:   Dev-AnimPhys (29E575DD-E0A3-4627-9D10-D276232CDCEA): 3
LogInit: Compiled (64-bit): Jun 29 2017 02:03:24
LogInit: Compiled with Visual C++: 19.00.24215.01
LogInit: Build Configuration: Development
LogInit: Branch Name: ++UE4+Release-4.16
LogInit: Command line:  
LogInit: Base directory: C:/Program Files/Epic Games/UE_4.16/Engine/Binaries/Win64/
LogInit: Installed Engine Build: 1
LogInit: Presizing for max 8388607 objects, including 0 objects not considered by GC, pre-allocating 0 bytes for permanent pool.
LogInit: Object subsystem initialized
[2017.10.27-01.02.40:497][  0]LogInit: Selected Device Profile: [Windows]
[2017.10.27-01.02.40:497][  0]LogInit: Applying CVar settings loaded from the selected device profile: [Windows]
[2017.10.27-01.02.40:513][  0]LogInit: Computer: L09-0402
[2017.10.27-01.02.40:513][  0]LogInit: User: internet
[2017.10.27-01.02.40:513][  0]LogInit: CPU Page size=4096, Cores=4
[2017.10.27-01.02.40:513][  0]LogInit: High frequency timer resolution =3.328123 MHz
[2017.10.27-01.02.40:514][  0]LogMemory: Memory total: Physical=7.9GB (8GB approx)
[2017.10.27-01.02.40:514][  0]LogMemory: Platform Memory Stats for Windows
[2017.10.27-01.02.40:514][  0]LogMemory: Process Physical Memory: 273.19 MB used, 273.19 MB peak
[2017.10.27-01.02.40:514][  0]LogMemory: Process Virtual Memory: 260.89 MB used, 260.89 MB peak
[2017.10.27-01.02.40:514][  0]LogMemory: Physical Memory: 5943.93 MB used,  2172.61 MB free, 8116.54 MB total
[2017.10.27-01.02.40:514][  0]LogMemory: Virtual Memory: 639.16 MB used,  2172.61 MB free, 134217728.00 MB total
[2017.10.27-01.02.40:563][  0]LogInit: Using OS detected language (pt-BR).
[2017.10.27-01.02.40:563][  0]LogInit: Using OS detected locale (pt-BR).
[2017.10.27-01.02.42:771][  0]LogD3D11RHI: D3D11 adapters:
[2017.10.27-01.02.42:786][  0]LogD3D11RHI:    0. 'AMD Radeon(TM) R5 340X' (Feature Level 11_0)
[2017.10.27-01.02.42:786][  0]LogD3D11RHI:       2029/0/4058 MB DedicatedVideo/DedicatedSystem/SharedSystem, Outputs:1, VendorId:0x1002
[2017.10.27-01.02.42:787][  0]LogD3D11RHI:    1. 'Microsoft Basic Render Driver' (Feature Level 11_0)
[2017.10.27-01.02.42:787][  0]LogD3D11RHI:       0/0/4058 MB DedicatedVideo/DedicatedSystem/SharedSystem, Outputs:0, VendorId:0x1414
[2017.10.27-01.02.42:787][  0]LogD3D11RHI: Chosen D3D11 Adapter: 0
[2017.10.27-01.02.42:790][  0]LogD3D11RHI: Creating new Direct3DDevice
[2017.10.27-01.02.42:790][  0]LogD3D11RHI:     GPU DeviceId: 0x6610 (for the marketing name, search the web for "GPU Device Id")
[2017.10.27-01.02.42:790][  0]LogWindows: EnumDisplayDevices:
[2017.10.27-01.02.42:791][  0]LogWindows:    0. 'AMD Radeon(TM) R5 340X' (P:1 D:1)
[2017.10.27-01.02.42:791][  0]LogWindows:    1. 'AMD Radeon(TM) R5 340X' (P:0 D:0)
[2017.10.27-01.02.42:791][  0]LogWindows: DebugString: FoundDriverCount:2 
[2017.10.27-01.02.42:791][  0]LogD3D11RHI:     Adapter Name: AMD Radeon(TM) R5 340X
[2017.10.27-01.02.42:791][  0]LogD3D11RHI:   Driver Version: Crimson ReLive 17.1.2 (internal:21.19.413.0, unified:21.19.413.0)
[2017.10.27-01.02.42:791][  0]LogD3D11RHI:      Driver Date: 1-25-2017
[2017.10.27-01.02.42:791][  0]LogRHI: Texture pool is 1361 MB (70% of 1945 MB)
[2017.10.27-01.02.42:810][  0]LogD3D11RHI: Async texture creation enabled
[2017.10.27-01.02.42:820][  0]LogD3D11RHI: GPU Timing Frequency: 27.000000 (Debug: 2 1)
[2017.10.27-01.02.42:821][  0]LogShaderCompilers: Guid format shader working directory is -4 characters bigger than the processId version (E:/JogoP/Jogo_simounao2/Intermediate/Shaders/WorkingDirectory/6000/).
[2017.10.27-01.02.42:821][  0]LogShaderCompilers: Cleaned the shader compiler working directory 'C:/TMP/UnrealShaderWorkingDir/BCDA0A4A43A9344A4A4E1EB844C559FC/'.
[2017.10.27-01.02.42:821][  0]LogShaderCompilers:Display: Using Local Shader Compiler.
[2017.10.27-01.02.46:983][  0]LogTemp:Display: Loaded TP AllDesktopTargetPlatform
[2017.10.27-01.02.47:020][  0]LogTemp:Display: Loaded TP MacClientTargetPlatform
[2017.10.27-01.02.47:058][  0]LogTemp:Display: Loaded TP MacNoEditorTargetPlatform
[2017.10.27-01.02.47:098][  0]LogTemp:Display: Loaded TP MacServerTargetPlatform
[2017.10.27-01.02.47:149][  0]LogTemp:Display: Loaded TP MacTargetPlatform
[2017.10.27-01.02.47:188][  0]LogTemp:Display: Loaded TP WindowsClientTargetPlatform
[2017.10.27-01.02.47:227][  0]LogTemp:Display: Loaded TP WindowsNoEditorTargetPlatform
[2017.10.27-01.02.47:266][  0]LogTemp:Display: Loaded TP WindowsServerTargetPlatform
[2017.10.27-01.02.47:299][  0]LogTemp:Display: Loaded TP WindowsTargetPlatform
[2017.10.27-01.02.47:338][  0]LogTemp:Display: Loaded TP AndroidTargetPlatform
[2017.10.27-01.02.47:374][  0]LogTemp:Display: Loaded TP Android_ASTCTargetPlatform
[2017.10.27-01.02.47:412][  0]LogTemp:Display: Loaded TP Android_ATCTargetPlatform
[2017.10.27-01.02.47:449][  0]LogTemp:Display: Loaded TP Android_DXTTargetPlatform
[2017.10.27-01.02.47:487][  0]LogTemp:Display: Loaded TP Android_ETC1TargetPlatform
[2017.10.27-01.02.47:525][  0]LogTemp:Display: Loaded TP Android_ETC2TargetPlatform
[2017.10.27-01.02.47:600][  0]LogTemp:Display: Loaded TP Android_MultiTargetPlatform
[2017.10.27-01.02.47:600][  0]LogTemp:Display: Loaded TP Android_PVRTCTargetPlatform
[2017.10.27-01.02.47:629][  0]LogTemp:Display: Loaded TP HTML5TargetPlatform
[2017.10.27-01.02.47:705][  0]LogTemp:Display: Loaded TP IOSTargetPlatform
[2017.10.27-01.02.47:729][  0]LogTemp:Display: Loaded TP TVOSTargetPlatform
[2017.10.27-01.02.47:765][  0]LogTemp:Display: Loaded TP LinuxClientTargetPlatform
[2017.10.27-01.02.47:801][  0]LogTemp:Display: Loaded TP LinuxNoEditorTargetPlatform
[2017.10.27-01.02.47:838][  0]LogTemp:Display: Loaded TP LinuxServerTargetPlatform
[2017.10.27-01.02.47:877][  0]LogTemp:Display: Loaded TP LinuxTargetPlatform
[2017.10.27-01.02.47:877][  0]LogTargetPlatformManager:Display: Building Assets For Windows
[2017.10.27-01.02.48:269][  0]LogDerivedDataCache:Display: Max Cache Size: 512 MB
[2017.10.27-01.02.48:756][  0]LogDerivedDataCache: Loaded boot cache 0.49s 90MB C:/Users/internet/AppData/Local/UnrealEngine/4.16/DerivedDataCache/Boot.ddc.
[2017.10.27-01.02.48:756][  0]LogDerivedDataCache:Display: Loaded Boot cache: C:/Users/internet/AppData/Local/UnrealEngine/4.16/DerivedDataCache/Boot.ddc
[2017.10.27-01.02.48:756][  0]LogDerivedDataCache: FDerivedDataBackendGraph:  Pak pak cache file E:/JogoP/Jogo_simounao2/DerivedDataCache/DDC.ddp not found, will not use a pak cache.
[2017.10.27-01.02.48:756][  0]LogDerivedDataCache: Unable to find inner node Pak for hierarchical cache Hierarchy.
[2017.10.27-01.02.48:756][  0]LogDerivedDataCache: FDerivedDataBackendGraph:  CompressedPak pak cache file E:/JogoP/Jogo_simounao2/DerivedDataCache/Compressed.ddp not found, will not use a pak cache.
[2017.10.27-01.02.48:756][  0]LogDerivedDataCache: Unable to find inner node CompressedPak for hierarchical cache Hierarchy.
[2017.10.27-01.02.48:772][  0]LogDerivedDataCache:Display: Pak cache opened for reading ../../../Engine/DerivedDataCache/Compressed.ddp.
[2017.10.27-01.02.48:783][  0]LogDerivedDataCache: Using Local data cache path C:/Users/internet/AppData/Local/UnrealEngine/Common/DerivedDataCache: Writable
[2017.10.27-01.02.48:791][  0]LogMaterial: Verifying Global Shaders for PCD3D_SM5
[2017.10.27-01.02.48:792][  0]LogSlate: Using Freetype 2.6.0
[2017.10.27-01.02.48:845][  0]LogSlate: SlateFontCache - WITH_FREETYPE: 1, WITH_HARFBUZZ: 1
[2017.10.27-01.02.48:845][  0]LogSlate: SlateFontCache - WITH_FREETYPE: 1, WITH_HARFBUZZ: 1
[2017.10.27-01.02.49:729][  0]LogInit: Selected Device Profile: [Windows]
[2017.10.27-01.02.49:811][  0]LogContentStreaming: Texture pool size is 0.00 MB
[2017.10.27-01.02.49:971][  0]LogMeshUtilities: Using QuadricMeshReduction for automatic static mesh reduction
[2017.10.27-01.02.50:004][  0]LogSimplygon: Simplygon DLL not present - disabling.
[2017.10.27-01.02.50:039][  0]LogMeshUtilities: Using SimplygonSwarm for distributed automatic mesh merging
[2017.10.27-01.02.50:039][  0]LogMeshUtilities: No automatic skeletal mesh reduction module available
[2017.10.27-01.02.50:039][  0]LogMeshUtilities: No automatic mesh merging module available
[2017.10.27-01.02.50:585][  0]LogNetVersion: Jogo_simounao2 , NetCL: 3452394, EngineNetVer: 2, GameNetVer: 0 (Checksum: 3691282643)
[2017.10.27-01.02.50:642][  0]LogAssetRegistry: FAssetRegistry took 0.0280 seconds to start up
[2017.10.27-01.02.50:684][  0]LogPackageLocalizationCache: Processed 4 localized package path(s) for 2 prioritized culture(s) in 0.023130 seconds
[2017.10.27-01.02.50:688][  0]LogUObjectArray: 34194 objects as part of root set at end of initial load.
[2017.10.27-01.02.50:688][  0]LogUObjectAllocator: 7260416 out of 0 bytes used by permanent object pool.
[2017.10.27-01.02.50:688][  0]LogUObjectArray: CloseDisregardForGC: 0/0 objects in disregard for GC pool
[2017.10.27-01.02.50:738][  0]LogInit: WinSock: version 1.1 (2.2), MaxSocks=32767, MaxUdp=65467
[2017.10.27-01.03.17:850][  0]LogTcpMessaging: Initializing TcpMessaging bridge
[2017.10.27-01.03.17:883][  0]LogUdpMessaging: Initializing bridge on interface 0.0.0.0:0 to multicast group 230.0.0.1:6666.
[2017.10.27-01.03.18:503][  0]LogMaterial: Uniform references updated for custom material expression Custom.
[2017.10.27-01.03.18:831][  0]SourceControl: Informações Controle de origem desativado
[2017.10.27-01.03.18:860][  0]SourceControl: Informações Controle de origem desativado
[2017.10.27-01.03.18:895][  0]SourceControl: Informações Controle de origem desativado
[2017.10.27-01.03.18:930][  0]SourceControl: Informações Controle de origem desativado
[2017.10.27-01.03.19:611][  0]LogAndroidPermission: UAndroidPermissionCallbackProxy::GetInstance
[2017.10.27-01.03.20:085][  0]LogEngine: Initializing Engine...
[2017.10.27-01.03.20:085][  0]LogHMD: Failed to initialize OpenVR with code 110
[2017.10.27-01.03.20:270][  0]LogStats: UGameplayTagsManager::ConstructGameplayTagTree: Construct from data asset -  0.000 s
[2017.10.27-01.03.20:270][  0]LogStats: UGameplayTagsManager::ConstructGameplayTagTree: GameplayTagTreeChangedEvent.Broadcast -  0.000 s
[2017.10.27-01.03.20:364][  0]LogAIModule: Creating AISystem for world Untitled
[2017.10.27-01.03.20:370][  0]LogInit: XAudio2 using 'Alto-falantes (3- Dispositivo de High Definition Audio)' : 2 channels at 44.1 kHz using 16 bits per sample (channel mask 0x3)
[2017.10.27-01.03.20:378][  0]LogInit: FAudioDevice initialized.
[2017.10.27-01.03.20:416][  0]LogDerivedDataCache: Saved boot cache 0.04s 90MB C:/Users/internet/AppData/Local/UnrealEngine/4.16/DerivedDataCache/Boot.ddc.
[2017.10.27-01.03.20:427][  0]LogInit: Texture streaming: Enabled
[2017.10.27-01.03.20:502][  0]LogEngineSessionManager: EngineSessionManager initialized
[2017.10.27-01.03.20:820][  0]LogInit: Transaction tracking system initialized
[2017.10.27-01.03.21:051][  0]BlueprintLog: New page: Carregar Editor
[2017.10.27-01.03.21:827][  0]LocalizationService: Informações Localization service is disabled
[2017.10.27-01.03.22:437][  0]LogConsoleResponse:Display: 
[2017.10.27-01.03.22:562][  0]LogCook:Display: Max memory allowance for cook 16384mb min free memory 0mb
[2017.10.27-01.03.22:562][  0]LogFileCache: Scanning file cache for directory 'E:/JogoP/Jogo_simounao2/Content/' took 0.01s
[2017.10.27-01.03.22:562][  0]LogCook:Display: Mobile HDR setting 1
[2017.10.27-01.03.23:579][  0]SourceControl: Informações Controle de origem desativado
[2017.10.27-01.03.23:685][  0]LogSlate: Took 0.032839 seconds to synchronously load lazily loaded font '../../../Engine/Content/Slate/Fonts/Roboto-Regular.ttf' (155K)
[2017.10.27-01.22.29:150][  0]LogWindowsTextInputMethodSystem:Display: IME system now deactivated.
[2017.10.27-01.22.29:169][  0]LogWindowsTextInputMethodSystem:Display: IME system now deactivated.
[2017.10.27-01.22.29:170][  0]Cmd: MAP LOAD FILE="../../../Engine/Content/Maps/Templates/Template_Default.umap" TEMPLATE=1 SHOWPROGRESS=1 FEATURELEVEL=3
[2017.10.27-01.22.29:170][  0]LightingResults: New page: Compilação de Iluminação
[2017.10.27-01.22.29:209][  0]MapCheck: New page: Verificação de Mapa
[2017.10.27-01.22.29:209][  0]LightingResults: New page: Compilação de Iluminação
[2017.10.27-01.22.29:386][  0]LogAIModule: Creating AISystem for world Untitled_1
[2017.10.27-01.22.29:387][  0]LogActorComponent: RegisterComponentWithWorld: (/Temp/Untitled_1.Untitled_1:PersistentLevel.WorldSettings_1.StaticMeshComponent0) Trying to register component with IsPendingKill() == true. Aborting.
[2017.10.27-01.22.29:392][  0]LogEditorServer: Finished looking for orphan Actors (0.000 secs)
[2017.10.27-01.22.29:408][  0]Cmd: MAP CHECKDEP NOCLEARLOG
[2017.10.27-01.22.29:452][  0]MapCheck: Informações Map check complete: 0 Error(s), 0 Warning(s), took 44,724ms to complete.
[2017.10.27-01.22.29:452][  0]LogFileHelpers: Loading map 'Template_Default' took 0.282
[2017.10.27-01.22.29:610][  0]LogStats:Warning: MetaData mismatch. Did you assign a stat to two groups? New //STATGROUP_Threads//SplashScreenThread///Thread_1780_0///####STATCAT_Advanced#### old //STATGROUP_Threads//SplashScreenThread///Thread_12ac_0///####STATCAT_Advanced####
[2017.10.27-01.22.29:610][  0]LogCollectionManager: Loaded 0 collections in 0.001264 seconds
[2017.10.27-01.22.29:677][  0]LogFileCache: Scanning file cache for directory 'E:/JogoP/Jogo_simounao2/Saved/Collections/' took 0.01s
[2017.10.27-01.22.29:677][  0]LogFileCache: Scanning file cache for directory 'E:/JogoP/Jogo_simounao2/Content/Developers/internet/Collections/' took 0.01s
[2017.10.27-01.22.29:677][  0]LogFileCache: Scanning file cache for directory 'E:/JogoP/Jogo_simounao2/Content/Collections/' took 0.01s
[2017.10.27-01.22.29:677][  0]LogCollectionManager: Rebuilt the GUID cache for 0 collections in 0.000002 seconds
[2017.10.27-01.22.29:685][  0]LogContentBrowser: Native class hierarchy populated in 0.0077 seconds. Added 2329 classes and 491 folders.
[2017.10.27-01.22.29:735][  0]LogContentBrowser: Native class hierarchy updated for 'WidgetCarousel' in 0.0004 seconds. Added 0 classes and 0 folders.
[2017.10.27-01.22.30:737][  0]LogContentBrowser: Native class hierarchy updated for 'AddContentDialog' in 0.0004 seconds. Added 0 classes and 0 folders.
[2017.10.27-01.22.30:783][  0]LogContentBrowser: Native class hierarchy updated for 'SceneOutliner' in 0.0005 seconds. Added 1 classes and 2 folders.
[2017.10.27-01.22.30:814][  0]LogCrashTracker: Crashtracker disabled due to settings.
[2017.10.27-01.22.30:889][  0]LogSlate: Took 0.069196 seconds to synchronously load lazily loaded font '../../../Engine/Content/Slate/Fonts/Roboto-Bold.ttf' (160K)
[2017.10.27-01.22.30:933][  0]LogSlate: Took 0.040315 seconds to synchronously load lazily loaded font '../../../Engine/Content/Editor/Slate/Fonts/FontAwesome.ttf' (139K)
[2017.10.27-01.22.31:042][  0]LogRenderer: Reallocating scene render targets to support 1208x576 NumSamples 1 (Frame:1).
[2017.10.27-01.22.31:256][  0]LogContentBrowser: Native class hierarchy updated for 'HierarchicalLODOutliner' in 0.0004 seconds. Added 1 classes and 2 folders.
[2017.10.27-01.22.31:256][  0]LogLoad: (Engine Initialization) Total time: 1192.51 seconds
[2017.10.27-01.22.31:256][  0]LogLoad: (Engine Initialization) Total Blueprint compile time: 0.15 seconds
[2017.10.27-01.22.31:256][  0]LogExternalProfiler: Found external profiler: VSPerf
[2017.10.27-01.22.31:256][  0]LogExternalProfiler: Using external profiler: VSPerf
[2017.10.27-01.22.31:265][  0]LogOcInput: OculusInput pre-init called
[2017.10.27-01.22.31:265][  0]LogHMD: Starting GearVRController plugin
[2017.10.27-01.22.31:278][  0]LogAssetRegistry: Asset discovery search completed in 1180.6599 seconds
[2017.10.27-01.22.31:279][  0]LogCollectionManager: Rebuilt the object cache for 0 collections in 0.000001 seconds (found 0 objects)
[2017.10.27-01.22.31:279][  0]LogCollectionManager: Fixed up redirectors for 0 collections in 0.000019 seconds (updated 0 objects)
[2017.10.27-01.22.31:312][  0]LogContentStreaming: Texture pool size now 1000 MB
[2017.10.27-01.22.31:349][  0]LogSlate: Took 0.013620 seconds to synchronously load lazily loaded font '../../../Engine/Content/Slate/Fonts/Roboto-Light.ttf' (159K)
[2017.10.27-01.22.32:353][ 27]LogSlate: Took 0.000131 seconds to synchronously load lazily loaded font '../../../Engine/Content/Slate/Fonts/Roboto-Light.ttf' (159K)
[2017.10.27-01.23.01:565][453]LogWindowsTextInputMethodSystem:Display: IME system now deactivated.
[2017.10.27-01.23.01:712][454]Cmd: QUIT_EDITOR
[2017.10.27-01.23.01:733][454]LogExit: Preparing to exit.
[2017.10.27-01.23.02:406][454]LogExit: Editor shut down
[2017.10.27-01.23.02:415][454]LogExit: Transaction tracking system shut down
[2017.10.27-01.23.02:453][454]LogObj: Freed 0b from 0 cluster array pools.
[2017.10.27-01.23.02:453][454]LogExit: Object subsystem successfully closed.
[2017.10.27-01.23.02:472][454]LogD3D11RHI: Shutdown
[2017.10.27-01.23.02:472][454]LogD3D11RHI: CleanupD3DDevice
[2017.10.27-01.23.02:524][454]LogD3D11RHI: ~FD3D11DynamicRHI
[2017.10.27-01.23.02:537][454]LogModuleManager: Shutting down and abandoning module HierarchicalLODOutliner (524)
[2017.10.27-01.23.02:537][454]LogModuleManager: Shutting down and abandoning module CrashTracker (522)
[2017.10.27-01.23.02:537][454]LogModuleManager: Shutting down and abandoning module SceneOutliner (520)
[2017.10.27-01.23.02:537][454]LogModuleManager: Shutting down and abandoning module AddContentDialog (518)
[2017.10.27-01.23.02:537][454]LogDirectoryWatcher: A directory notification for 'C:/Program Files/Epic Games/UE_4.16/FeaturePacks/' was aborted.
[2017.10.27-01.23.02:538][454]LogModuleManager: Shutting down and abandoning module WidgetCarousel (517)
[2017.10.27-01.23.02:538][454]LogModuleManager: Shutting down and abandoning module EditorWidgets (514)
[2017.10.27-01.23.02:538][454]LogModuleManager: Shutting down and abandoning module CollectionManager (512)
[2017.10.27-01.23.02:538][454]LogDirectoryWatcher: A directory notification for 'E:/JogoP/Jogo_simounao2/Content/Collections/' was aborted.
[2017.10.27-01.23.02:538][454]LogDirectoryWatcher: A directory notification for 'E:/JogoP/Jogo_simounao2/Content/Developers/internet/Collections/' was aborted.
[2017.10.27-01.23.02:538][454]LogDirectoryWatcher: A directory notification for 'E:/JogoP/Jogo_simounao2/Saved/Collections/' was aborted.
[2017.10.27-01.23.02:538][454]LogModuleManager: Shutting down and abandoning module StatsViewer (510)
[2017.10.27-01.23.02:538][454]LogModuleManager: Shutting down and abandoning module FoliageEdit (508)
[2017.10.27-01.23.02:538][454]LogModuleManager: Shutting down and abandoning module LandscapeEditor (506)
[2017.10.27-01.23.02:538][454]LogModuleManager: Shutting down and abandoning module MeshPaintMode (504)
[2017.10.27-01.23.02:538][454]LogModuleManager: Shutting down and abandoning module SceneDepthPickerMode (502)
[2017.10.27-01.23.02:538][454]LogModuleManager: Shutting down and abandoning module ActorPickerMode (500)
[2017.10.27-01.23.02:538][454]LogModuleManager: Shutting down and abandoning module GeometryMode (498)
[2017.10.27-01.23.02:538][454]LogModuleManager: Shutting down and abandoning module TextureAlignMode (496)
[2017.10.27-01.23.02:538][454]LogModuleManager: Shutting down and abandoning module BspMode (494)
[2017.10.27-01.23.02:538][454]LogModuleManager: Shutting down and abandoning module HardwareSurvey (492)
[2017.10.27-01.23.02:538][454]LogModuleManager: Shutting down and abandoning module SequenceRecorderSections (490)
[2017.10.27-01.23.02:539][454]LogModuleManager: Shutting down and abandoning module AutomationWorker (488)
[2017.10.27-01.23.02:539][454]LogModuleManager: Shutting down and abandoning module MatineeToLevelSequence (486)
[2017.10.27-01.23.02:539][454]LogModuleManager: Shutting down and abandoning module LevelSequenceEditor (484)
[2017.10.27-01.23.02:539][454]LogModuleManager: Shutting down and abandoning module PlacementMode (483)
[2017.10.27-01.23.02:539][454]LogModuleManager: Shutting down and abandoning module WmfMediaFactory (480)
[2017.10.27-01.23.02:539][454]LogModuleManager: Shutting down and abandoning module WmfMediaEditor (478)
[2017.10.27-01.23.02:539][454]LogModuleManager: Shutting down and abandoning module AvfMediaFactory (476)
[2017.10.27-01.23.02:539][454]LogModuleManager: Shutting down and abandoning module AvfMediaEditor (474)
[2017.10.27-01.23.02:539][454]LogModuleManager: Shutting down and abandoning module AndroidMediaFactory (472)
[2017.10.27-01.23.02:539][454]LogModuleManager: Shutting down and abandoning module Media (471)
[2017.10.27-01.23.02:539][454]LogModuleManager: Shutting down and abandoning module AndroidMediaEditor (468)
[2017.10.27-01.23.02:539][454]LogModuleManager: Shutting down and abandoning module CharacterAI (466)
[2017.10.27-01.23.02:539][454]LogModuleManager: Shutting down and abandoning module AudioCapture (464)
[2017.10.27-01.23.02:539][454]LogModuleManager: Shutting down and abandoning module SequenceRecorder (463)
[2017.10.27-01.23.02:539][454]LogModuleManager: Shutting down and abandoning module SmartSnapping (460)
[2017.10.27-01.23.02:539][454]LogModuleManager: Shutting down and abandoning module SessionServices (458)
[2017.10.27-01.23.02:539][454]LogModuleManager: Shutting down and abandoning module ViewportSnapping (456)
[2017.10.27-01.23.02:539][454]LogModuleManager: Shutting down and abandoning module ViewportInteraction (454)
[2017.10.27-01.23.02:539][454]LogModuleManager: Shutting down and abandoning module ClothPainter (452)
[2017.10.27-01.23.02:539][454]LogModuleManager: Shutting down and abandoning module LogVisualizer (450)
[2017.10.27-01.23.02:539][454]LogModuleManager: Shutting down and abandoning module IntroTutorials (448)
[2017.10.27-01.23.02:539][454]LogModuleManager: Shutting down and abandoning module GameProjectGeneration (447)
[2017.10.27-01.23.02:539][454]LogModuleManager: Shutting down and abandoning module EditorLiveStreaming (444)
[2017.10.27-01.23.02:539][454]LogModuleManager: Shutting down and abandoning module IOSPlatformEditor (442)
[2017.10.27-01.23.02:539][454]LogModuleManager: Shutting down and abandoning module HTML5PlatformEditor (440)
[2017.10.27-01.23.02:539][454]LogModuleManager: Shutting down and abandoning module AndroidPlatformEditor (438)
[2017.10.27-01.23.02:539][454]LogModuleManager: Shutting down and abandoning module AndroidDeviceDetection (437)
[2017.10.27-01.23.02:556][454]LogModuleManager: Shutting down and abandoning module IOSRuntimeSettings (434)
[2017.10.27-01.23.02:556][454]LogModuleManager: Shutting down and abandoning module AndroidRuntimeSettings (432)
[2017.10.27-01.23.02:556][454]LogModuleManager: Shutting down and abandoning module InputBindingEditor (430)
[2017.10.27-01.23.02:556][454]LogModuleManager: Shutting down and abandoning module MergeActors (428)
[2017.10.27-01.23.02:556][454]LogModuleManager: Shutting down and abandoning module SizeMap (426)
[2017.10.27-01.23.02:556][454]LogModuleManager: Shutting down and abandoning module TreeMap (424)
[2017.10.27-01.23.02:556][454]LogModuleManager: Shutting down and abandoning module ReferenceViewer (422)
[2017.10.27-01.23.02:556][454]LogModuleManager: Shutting down and abandoning module LocalizationDashboard (420)
[2017.10.27-01.23.02:556][454]LogModuleManager: Shutting down and abandoning module LocalizationService (419)
[2017.10.27-01.23.02:556][454]LogModuleManager: Shutting down and abandoning module HardwareTargeting (416)
[2017.10.27-01.23.02:556][454]LogModuleManager: Shutting down and abandoning module DeviceProfileEditor (414)
[2017.10.27-01.23.02:556][454]LogModuleManager: Shutting down and abandoning module UndoHistory (412)
[2017.10.27-01.23.02:556][454]LogModuleManager: Shutting down and abandoning module UserFeedback (410)
[2017.10.27-01.23.02:556][454]LogModuleManager: Shutting down and abandoning module XmlParser (408)
[2017.10.27-01.23.02:556][454]LogModuleManager: Shutting down and abandoning module Blutility (406)
[2017.10.27-01.23.02:556][454]LogModuleManager: Shutting down and abandoning module ProjectSettingsViewer (404)
[2017.10.27-01.23.02:556][454]LogModuleManager: Shutting down and abandoning module ProjectTargetPlatformEditor (403)
[2017.10.27-01.23.02:557][454]LogModuleManager: Shutting down and abandoning module EditorSettingsViewer (400)
[2017.10.27-01.23.02:557][454]LogModuleManager: Shutting down and abandoning module SettingsEditor (398)
[2017.10.27-01.23.02:557][454]LogModuleManager: Shutting down and abandoning module ProjectLauncher (396)
[2017.10.27-01.23.02:557][454]LogModuleManager: Shutting down and abandoning module SessionFrontend (394)
[2017.10.27-01.23.02:557][454]LogModuleManager: Shutting down and abandoning module ProfilerClient (392)
[2017.10.27-01.23.02:557][454]LogModuleManager: Shutting down and abandoning module DeviceManager (390)
[2017.10.27-01.23.02:557][454]LogModuleManager: Shutting down and abandoning module TargetDeviceServices (389)
[2017.10.27-01.23.02:609][454]LogModuleManager: Shutting down and abandoning module AutomationController (386)
[2017.10.27-01.23.02:609][454]LogModuleManager: Shutting down and abandoning module AutomationWindow (384)
[2017.10.27-01.23.02:609][454]LogModuleManager: Shutting down and abandoning module Layers (382)
[2017.10.27-01.23.02:609][454]LogModuleManager: Shutting down and abandoning module ComponentVisualizers (380)
[2017.10.27-01.23.02:609][454]LogModuleManager: Shutting down and abandoning module DetailCustomizations (378)
[2017.10.27-01.23.02:609][454]LogModuleManager: Shutting down and abandoning module PackagesDialog (376)
[2017.10.27-01.23.02:609][454]LogModuleManager: Shutting down and abandoning module Persona (374)
[2017.10.27-01.23.02:609][454]LogModuleManager: Shutting down and abandoning module AdvancedPreviewScene (373)
[2017.10.27-01.23.02:609][454]LogModuleManager: Shutting down and abandoning module AnimGraph (371)
[2017.10.27-01.23.02:609][454]LogModuleManager: Shutting down and abandoning module Kismet (368)
[2017.10.27-01.23.02:610][454]LogModuleManager: Shutting down and abandoning module ClassViewer (366)
[2017.10.27-01.23.02:610][454]LogModuleManager: Shutting down and abandoning module Toolbox (364)
[2017.10.27-01.23.02:610][454]LogModuleManager: Shutting down and abandoning module ModuleUI (362)
[2017.10.27-01.23.02:610][454]LogModuleManager: Shutting down and abandoning module MovieSceneTools (360)
[2017.10.27-01.23.02:610][454]LogModuleManager: Shutting down and abandoning module OutputLog (358)
[2017.10.27-01.23.02:610][454]LogModuleManager: Shutting down and abandoning module GammaUI (356)
[2017.10.27-01.23.02:610][454]LogModuleManager: Shutting down and abandoning module Documentation (354)
[2017.10.27-01.23.02:610][454]LogModuleManager: Shutting down and abandoning module MovieSceneTracks (352)
[2017.10.27-01.23.02:610][454]LogModuleManager: Shutting down and abandoning module MovieScene (350)
[2017.10.27-01.23.02:610][454]LogModuleManager: Shutting down and abandoning module Niagara (348)
[2017.10.27-01.23.02:610][454]LogModuleManager: Shutting down and abandoning module NiagaraEditor (347)
[2017.10.27-01.23.02:610][454]LogModuleManager: Shutting down and abandoning module StreamingPauseRendering (344)
[2017.10.27-01.23.02:610][454]LogModuleManager: Shutting down and abandoning module AnalyticsET (342)
[2017.10.27-01.23.02:610][454]LogModuleManager: Shutting down and abandoning module PortalServices (340)
[2017.10.27-01.23.02:610][454]LogModuleManager: Shutting down and abandoning module PortalRpc (338)
[2017.10.27-01.23.02:610][454]LogModuleManager: Shutting down and abandoning module MessagingRpc (336)
[2017.10.27-01.23.02:610][454]LogModuleManager: Shutting down and abandoning module AIModule (334)
[2017.10.27-01.23.02:610][454]LogModuleManager: Shutting down and abandoning module GameplayDebugger (333)
[2017.10.27-01.23.02:610][454]LogModuleManager: Shutting down and abandoning module AITestSuite (331)
[2017.10.27-01.23.02:610][454]LogModuleManager: Shutting down and abandoning module ProfilerService (328)
[2017.10.27-01.23.02:849][454]LogModuleManager: Shutting down and abandoning module TaskGraph (326)
[2017.10.27-01.23.02:849][454]LogModuleManager: Shutting down and abandoning module SteamVRController (324)
[2017.10.27-01.23.02:849][454]LogModuleManager: Shutting down and abandoning module SteamVR (322)
[2017.10.27-01.23.02:849][454]LogModuleManager: Shutting down and abandoning module ProceduralMeshComponentEditor (320)
[2017.10.27-01.23.02:849][454]LogModuleManager: Shutting down and abandoning module ProceduralMeshComponent (318)
[2017.10.27-01.23.02:849][454]LogModuleManager: Shutting down and abandoning module OculusLibrary (316)
[2017.10.27-01.23.02:849][454]LogModuleManager: Shutting down and abandoning module OculusInput (314)
[2017.10.27-01.23.02:849][454]LogModuleManager: Shutting down and abandoning module MobilePatchingUtils (312)
[2017.10.27-01.23.02:849][454]LogModuleManager: Shutting down and abandoning module CustomMeshComponent (310)
[2017.10.27-01.23.02:849][454]LogModuleManager: Shutting down and abandoning module CableComponent (308)
[2017.10.27-01.23.02:849][454]LogModuleManager: Shutting down and abandoning module ArchVisCharacter (306)
[2017.10.27-01.23.02:849][454]LogModuleManager: Shutting down and abandoning module AndroidPermission (304)
[2017.10.27-01.23.02:849][454]LogModuleManager: Shutting down and abandoning module MediaPlayerEditor (300)
[2017.10.27-01.23.02:849][454]LogModuleManager: Shutting down and abandoning module HTML5Networking (298)
[2017.10.27-01.23.02:849][454]LogModuleManager: Shutting down and abandoning module AlembicImporter (296)
[2017.10.27-01.23.02:849][454]LogModuleManager: Shutting down and abandoning module AlembicLibrary (295)
[2017.10.27-01.23.02:849][454]LogModuleManager: Shutting down and abandoning module GeometryCache (294)
[2017.10.27-01.23.02:849][454]LogModuleManager: Shutting down and abandoning module GeometryCacheEd (293)
[2017.10.27-01.23.02:849][454]LogModuleManager: Shutting down and abandoning module SuperSearchEditor (288)
[2017.10.27-01.23.02:849][454]LogModuleManager: Shutting down and abandoning module SuperSearch (287)
[2017.10.27-01.23.02:849][454]LogModuleManager: Shutting down and abandoning module SpeedTreeImporter (284)
[2017.10.27-01.23.02:849][454]LogModuleManager: Shutting down and abandoning module PluginBrowser (282)
[2017.10.27-01.23.02:849][454]LogModuleManager: Shutting down and abandoning module MobileLauncherProfileWizard (280)
[2017.10.27-01.23.02:849][454]LogModuleManager: Shutting down and abandoning module VisualStudioSourceCodeAccess (278)
[2017.10.27-01.23.02:849][454]LogModuleManager: Shutting down and abandoning module DesktopPlatform (277)
[2017.10.27-01.23.02:849][454]LogModuleManager: Shutting down and abandoning module UObjectPlugin (274)
[2017.10.27-01.23.02:849][454]LogModuleManager: Shutting down and abandoning module SubversionSourceControl (272)
[2017.10.27-01.23.02:849][454]LogModuleManager: Shutting down and abandoning module PerforceSourceControl (270)
[2017.10.27-01.23.02:849][454]LogModuleManager: Shutting down and abandoning module GitSourceControl (268)
[2017.10.27-01.23.02:849][454]LogModuleManager: Shutting down and abandoning module SourceControl (267)
[2017.10.27-01.23.02:849][454]LogModuleManager: Shutting down and abandoning module LightPropagationVolumeEditor (264)
[2017.10.27-01.23.02:849][454]LogModuleManager: Shutting down and abandoning module PaperTiledImporter (262)
[2017.10.27-01.23.02:850][454]LogModuleManager: Shutting down and abandoning module PaperSpriteSheetImporter (260)
[2017.10.27-01.23.02:850][454]LogModuleManager: Shutting down and abandoning module Paper2DEditor (258)
[2017.10.27-01.23.02:850][454]LogModuleManager: Shutting down and abandoning module MeshPaint (257)
[2017.10.27-01.23.02:850][454]LogModuleManager: Shutting down and abandoning module LevelEditor (255)
[2017.10.27-01.23.02:850][454]LogModuleManager: Shutting down and abandoning module PixelInspectorModule (254)
[2017.10.27-01.23.02:850][454]LogModuleManager: Shutting down and abandoning module MainFrame (252)
[2017.10.27-01.23.02:850][454]LogModuleManager: Shutting down and abandoning module HotReload (251)
[2017.10.27-01.23.02:850][454]LogModuleManager: Shutting down and abandoning module PhysXVehiclesEditor (246)
[2017.10.27-01.23.02:850][454]LogModuleManager: Shutting down and abandoning module PhysXVehicles (244)
[2017.10.27-01.23.02:850][454]LogModuleManager: Shutting down and abandoning module LocationServicesBPLibrary (242)
[2017.10.27-01.23.02:851][454]LogModuleManager: Shutting down and abandoning module ImmediatePhysicsEditor (240)
[2017.10.27-01.23.02:851][454]LogModuleManager: Shutting down and abandoning module ImmediatePhysics (238)
[2017.10.27-01.23.02:851][454]LogModuleManager: Shutting down and abandoning module UdpMessaging (236)
[2017.10.27-01.23.02:951][454]LogModuleManager: Shutting down and abandoning module TcpMessaging (234)
[2017.10.27-01.23.03:051][454]LogModuleManager: Shutting down and abandoning module GameplayTagsEditor (232)
[2017.10.27-01.23.03:051][454]LogModuleManager: Shutting down and abandoning module FacialAnimationEditor (230)
[2017.10.27-01.23.03:051][454]LogModuleManager: Shutting down and abandoning module FacialAnimation (228)
[2017.10.27-01.23.03:051][454]LogModuleManager: Shutting down and abandoning module AssetManagerEditor (226)
[2017.10.27-01.23.03:051][454]LogModuleManager: Shutting down and abandoning module GraphEditor (225)
[2017.10.27-01.23.03:051][454]LogModuleManager: Shutting down and abandoning module ContentBrowser (223)
[2017.10.27-01.23.03:052][454]LogModuleManager: Shutting down and abandoning module LightPropagationVolumeRuntime (220)
[2017.10.27-01.23.03:052][454]LogModuleManager: Shutting down and abandoning module Paper2D (218)
[2017.10.27-01.23.03:052][454]LogModuleManager: Shutting down and abandoning module WindowsMoviePlayer (216)
[2017.10.27-01.23.03:052][454]LogModuleManager: Shutting down and abandoning module WmfMedia (214)
[2017.10.27-01.23.03:053][454]LogModuleManager: Shutting down and abandoning module ClothingSystemEditor (212)
[2017.10.27-01.23.03:053][454]LogModuleManager: Shutting down and abandoning module ClothingSystemRuntime (210)
[2017.10.27-01.23.03:053][454]LogModuleManager: Shutting down and abandoning module MediaAssets (208)
[2017.10.27-01.23.03:053][454]LogModuleManager: Shutting down and abandoning module GameLiveStreaming (206)
[2017.10.27-01.23.03:053][454]LogModuleManager: Shutting down and abandoning module VREditor (204)
[2017.10.27-01.23.03:053][454]LogModuleManager: Shutting down and abandoning module StringTableEditor (202)
[2017.10.27-01.23.03:053][454]LogModuleManager: Shutting down and abandoning module GameplayTasksEditor (200)
[2017.10.27-01.23.03:053][454]LogModuleManager: Shutting down and abandoning module BehaviorTreeEditor (198)
[2017.10.27-01.23.03:053][454]LogModuleManager: Shutting down and abandoning module FunctionalTesting (196)
[2017.10.27-01.23.03:053][454]LogModuleManager: Shutting down and abandoning module CollisionAnalyzer (194)
[2017.10.27-01.23.03:053][454]LogModuleManager: Shutting down and abandoning module UMG (192)
[2017.10.27-01.23.03:053][454]LogModuleManager: Shutting down and abandoning module UMGEditor (191)
[2017.10.27-01.23.03:053][454]LogModuleManager: Shutting down and abandoning module Sequencer (190)
[2017.10.27-01.23.03:053][454]LogModuleManager: Shutting down and abandoning module AssetTools (188)
[2017.10.27-01.23.03:053][454]LogModuleManager: Shutting down and abandoning module MessageLog (187)
[2017.10.27-01.23.03:053][454]LogModuleManager: Shutting down and abandoning module WorkspaceMenuStructure (186)
[2017.10.27-01.23.03:053][454]LogModuleManager: Shutting down and abandoning module SlateReflector (180)
[2017.10.27-01.23.03:053][454]LogModuleManager: Shutting down and abandoning module Slate (178)
[2017.10.27-01.23.03:053][454]LogModuleManager: Shutting down and abandoning module EditorStyle (176)
[2017.10.27-01.23.03:055][454]LogModuleManager: Shutting down and abandoning module SourceCodeAccess (174)
[2017.10.27-01.23.03:055][454]LogModuleManager: Shutting down and abandoning module HeadMountedDisplay (172)
[2017.10.27-01.23.03:055][454]LogModuleManager: Shutting down and abandoning module XAudio2 (170)
[2017.10.27-01.23.03:055][454]LogModuleManager: Shutting down and abandoning module Networking (168)
[2017.10.27-01.23.03:055][454]LogModuleManager: Shutting down and abandoning module Core (164)
[2017.10.27-01.23.03:055][454]LogModuleManager: Shutting down and abandoning module AssetRegistry (162)
[2017.10.27-01.23.03:232][454]LogDirectoryWatcher: A directory notification for '../../../Engine/Content/' was aborted.
[2017.10.27-01.23.03:232][454]LogDirectoryWatcher: A directory notification for 'E:/JogoP/Jogo_simounao2/Content/' was aborted.
[2017.10.27-01.23.03:232][454]LogDirectoryWatcher: A directory notification for '../../../Engine/Plugins/2D/Paper2D/Content/' was aborted.
[2017.10.27-01.23.03:232][454]LogDirectoryWatcher: A directory notification for '../../../Engine/Plugins/Runtime/GearVR/Content/' was aborted.
[2017.10.27-01.23.03:234][454]LogModuleManager: Shutting down and abandoning module DirectoryWatcher (161)
[2017.10.27-01.23.03:234][454]LogModuleManager: Shutting down and abandoning module KismetCompiler (158)
[2017.10.27-01.23.03:234][454]LogModuleManager: Shutting down and abandoning module LevelSequence (156)
[2017.10.27-01.23.03:234][454]LogModuleManager: Shutting down and abandoning module PhysXFormats (154)
[2017.10.27-01.23.03:234][454]LogModuleManager: Shutting down and abandoning module MeshUtilities (152)
[2017.10.27-01.23.03:234][454]LogModuleManager: Shutting down and abandoning module SimplygonSwarm (151)
[2017.10.27-01.23.03:234][454]LogModuleManager: Shutting down and abandoning module SimplygonMeshReduction (149)
[2017.10.27-01.23.03:234][454]LogModuleManager: Shutting down and abandoning module QuadricMeshReduction (147)
[2017.10.27-01.23.03:234][454]LogModuleManager: Shutting down and abandoning module DerivedDataCache (144)
[2017.10.27-01.23.03:314][454]LogDerivedDataCache: Shutdown
[2017.10.27-01.23.03:314][454]LogModuleManager: Shutting down and abandoning module TargetPlatform (142)
[2017.10.27-01.23.03:314][454]LogModuleManager: Shutting down and abandoning module VulkanShaderFormat (141)
[2017.10.27-01.23.03:314][454]LogModuleManager: Shutting down and abandoning module ShaderFormatVectorVM (139)
[2017.10.27-01.23.03:314][454]LogModuleManager: Shutting down and abandoning module ShaderFormatOpenGL (137)
[2017.10.27-01.23.03:314][454]LogModuleManager: Shutting down and abandoning module ShaderFormatD3D (135)
[2017.10.27-01.23.03:314][454]LogModuleManager: Shutting down and abandoning module MetalShaderFormat (133)
[2017.10.27-01.23.03:314][454]LogModuleManager: Shutting down and abandoning module TextureFormatUncompressed (131)
[2017.10.27-01.23.03:314][454]LogModuleManager: Shutting down and abandoning module TextureFormatPVR (129)
[2017.10.27-01.23.03:314][454]LogModuleManager: Shutting down and abandoning module TextureFormatDXT (127)
[2017.10.27-01.23.03:314][454]LogModuleManager: Shutting down and abandoning module TextureFormatIntelISPCTexComp (125)
[2017.10.27-01.23.03:314][454]LogModuleManager: Shutting down and abandoning module TextureFormatASTC (123)
[2017.10.27-01.23.03:314][454]LogModuleManager: Shutting down and abandoning module ImageWrapper (122)
[2017.10.27-01.23.03:314][454]LogModuleManager: Shutting down and abandoning module TextureFormatAndroid (119)
[2017.10.27-01.23.03:314][454]LogModuleManager: Shutting down and abandoning module AudioFormatOpus (117)
[2017.10.27-01.23.03:314][454]LogModuleManager: Shutting down and abandoning module AudioFormatOgg (115)
[2017.10.27-01.23.03:314][454]LogModuleManager: Shutting down and abandoning module AudioFormatADPCM (113)
[2017.10.27-01.23.03:314][454]LogModuleManager: Shutting down and abandoning module LinuxTargetPlatform (111)
[2017.10.27-01.23.03:314][454]LogModuleManager: Shutting down and abandoning module LinuxServerTargetPlatform (109)
[2017.10.27-01.23.03:314][454]LogModuleManager: Shutting down and abandoning module LinuxNoEditorTargetPlatform (107)
[2017.10.27-01.23.03:314][454]LogModuleManager: Shutting down and abandoning module LinuxClientTargetPlatform (105)
[2017.10.27-01.23.03:314][454]LogModuleManager: Shutting down and abandoning module TVOSTargetPlatform (103)
[2017.10.27-01.23.03:314][454]LogModuleManager: Shutting down and abandoning module Messaging (101)
[2017.10.27-01.23.03:314][454]LogModuleManager: Shutting down and abandoning module IOSTargetPlatform (99)
[2017.10.27-01.23.03:314][454]LogModuleManager: Shutting down and abandoning module HTML5TargetPlatform (97)
[2017.10.27-01.23.03:314][454]LogModuleManager: Shutting down and abandoning module Android_PVRTCTargetPlatform (95)
[2017.10.27-01.23.03:314][454]LogModuleManager: Shutting down and abandoning module Android_MultiTargetPlatform (93)
[2017.10.27-01.23.03:314][454]LogModuleManager: Shutting down and abandoning module Android_ETC2TargetPlatform (91)
[2017.10.27-01.23.03:314][454]LogModuleManager: Shutting down and abandoning module Android_ETC1TargetPlatform (89)
[2017.10.27-01.23.03:314][454]LogModuleManager: Shutting down and abandoning module Android_DXTTargetPlatform (87)
[2017.10.27-01.23.03:314][454]LogModuleManager: Shutting down and abandoning module Android_ATCTargetPlatform (85)
[2017.10.27-01.23.03:314][454]LogModuleManager: Shutting down and abandoning module Android_ASTCTargetPlatform (83)
[2017.10.27-01.23.03:314][454]LogModuleManager: Shutting down and abandoning module AndroidTargetPlatform (81)
[2017.10.27-01.23.03:314][454]LogModuleManager: Shutting down and abandoning module WindowsTargetPlatform (79)
[2017.10.27-01.23.03:314][454]LogModuleManager: Shutting down and abandoning module WindowsServerTargetPlatform (77)
[2017.10.27-01.23.03:314][454]LogModuleManager: Shutting down and abandoning module WindowsNoEditorTargetPlatform (75)
[2017.10.27-01.23.03:314][454]LogModuleManager: Shutting down and abandoning module WindowsClientTargetPlatform (73)
[2017.10.27-01.23.03:314][454]LogModuleManager: Shutting down and abandoning module MacTargetPlatform (71)
[2017.10.27-01.23.03:314][454]LogModuleManager: Shutting down and abandoning module MacServerTargetPlatform (69)
[2017.10.27-01.23.03:314][454]LogModuleManager: Shutting down and abandoning module MacNoEditorTargetPlatform (67)
[2017.10.27-01.23.03:314][454]LogModuleManager: Shutting down and abandoning module MacClientTargetPlatform (65)
[2017.10.27-01.23.03:314][454]LogModuleManager: Shutting down and abandoning module AllDesktopTargetPlatform (63)
[2017.10.27-01.23.03:314][454]LogModuleManager: Shutting down and abandoning module InputCore (60)
[2017.10.27-01.23.03:314][454]LogModuleManager: Shutting down and abandoning module Settings (58)
[2017.10.27-01.23.03:314][454]LogModuleManager: Shutting down and abandoning module OculusRift (56)
[2017.10.27-01.23.03:314][454]LogModuleManager: Shutting down and abandoning module GearVRController (54)
[2017.10.27-01.23.03:314][454]LogModuleManager: Shutting down and abandoning module GearVR (52)
[2017.10.27-01.23.03:314][454]LogModuleManager: Shutting down and abandoning module ExampleDeviceProfileSelector (50)
[2017.10.27-01.23.03:314][454]LogModuleManager: Shutting down and abandoning module OnlineBlueprintSupport (48)
[2017.10.27-01.23.03:314][454]LogModuleManager: Shutting down and abandoning module OnlineSubsystem (44)
[2017.10.27-01.23.03:314][454]LogOnline:Display: Unloading online subsystem: NULL
[2017.10.27-01.23.03:314][454]LogModuleManager: Shutting down and abandoning module XMPP (43)
[2017.10.27-01.23.03:314][454]LogModuleManager: Shutting down and abandoning module HTTP (41)
[2017.10.27-01.23.03:314][454]LogHttp:Display: Http module shutting down, but needs to wait on 1 outstanding Http requests:
[2017.10.27-01.23.03:314][454]LogHttp:Display: 	verb=[POST] url=[https://datarouter.ol.epicgames.com/datarouter/api/v1/public/data?SessionID=%7BB23F5CC4-48CE-077C-5E93-168953802911%7D&AppID=UEEditor.Rocket.Release&AppVersion=4.16.2-3514769%2B%2B%2BUE4%2BRelease-4.16&UserID=139fd2a349b874e6445e2da7f391e2b6%7C%7Cbddbe2b9-60db-4c95-999f-b671093bb438&AppEnvironment=datacollector-binary&UploadType=eteventstream] status=Processing
[2017.10.27-01.23.03:314][454]LogHttp:Display: Sleeping 0.5s to wait for 1 outstanding Http requests.
[2017.10.27-01.23.03:815][454]LogHttp:Display: Sleeping 0.5s to wait for 1 outstanding Http requests.
[2017.10.27-01.23.04:315][454]LogHttp:Display: Sleeping 0.5s to wait for 1 outstanding Http requests.
[2017.10.27-01.23.04:815][454]LogHttp:Display: Sleeping 0.5s to wait for 1 outstanding Http requests.
[2017.10.27-01.23.05:316][454]LogHttp:Display: Sleeping 0.5s to wait for 1 outstanding Http requests.
[2017.10.27-01.23.05:816][454]LogHttp:Display: Sleeping 0.5s to wait for 1 outstanding Http requests.
[2017.10.27-01.23.06:316][454]LogHttp:Display: Sleeping 0.5s to wait for 1 outstanding Http requests.
[2017.10.27-01.23.06:817][454]LogHttp:Display: Sleeping 0.5s to wait for 1 outstanding Http requests.
[2017.10.27-01.23.07:318][454]LogHttp:Display: Sleeping 0.5s to wait for 1 outstanding Http requests.
[2017.10.27-01.23.07:818][454]LogHttp:Display: Sleeping 0.5s to wait for 1 outstanding Http requests.
[2017.10.27-01.23.08:319][454]LogHttp:Display: Sleeping 0.5s to wait for 1 outstanding Http requests.
[2017.10.27-01.23.08:819][454]LogHttp:Display: Sleeping 0.5s to wait for 1 outstanding Http requests.
[2017.10.27-01.23.09:320][454]LogHttp:Display: Sleeping 0.5s to wait for 1 outstanding Http requests.
[2017.10.27-01.23.09:820][454]LogHttp:Display: Sleeping 0.5s to wait for 1 outstanding Http requests.
[2017.10.27-01.23.10:320][454]LogHttp:Display: Sleeping 0.5s to wait for 1 outstanding Http requests.
[2017.10.27-01.23.10:821][454]LogHttp:Display: Sleeping 0.5s to wait for 1 outstanding Http requests.
[2017.10.27-01.23.11:322][454]LogHttp:Display: Sleeping 0.5s to wait for 1 outstanding Http requests.
[2017.10.27-01.23.11:822][454]LogHttp:Display: Sleeping 0.5s to wait for 1 outstanding Http requests.
[2017.10.27-01.23.12:322][454]LogHttp:Display: Sleeping 0.5s to wait for 1 outstanding Http requests.
[2017.10.27-01.23.12:823][454]LogHttp:Display: Sleeping 0.5s to wait for 1 outstanding Http requests.
[2017.10.27-01.23.13:323][454]LogHttp:Display: Sleeping 0.5s to wait for 1 outstanding Http requests.
[2017.10.27-01.23.13:824][454]LogHttp:Display: Sleeping 0.5s to wait for 1 outstanding Http requests.
[2017.10.27-01.23.14:324][454]LogHttp:Display: Sleeping 0.5s to wait for 1 outstanding Http requests.
[2017.10.27-01.23.14:824][454]LogHttp:Display: Sleeping 0.5s to wait for 1 outstanding Http requests.
[2017.10.27-01.23.15:324][454]LogHttp:Display: Sleeping 0.5s to wait for 1 outstanding Http requests.
[2017.10.27-01.23.15:824][454]LogHttp:Display: Sleeping 0.5s to wait for 1 outstanding Http requests.
[2017.10.27-01.23.16:325][454]LogHttp:Display: Sleeping 0.5s to wait for 1 outstanding Http requests.
[2017.10.27-01.23.16:825][454]LogHttp:Display: Sleeping 0.5s to wait for 1 outstanding Http requests.
[2017.10.27-01.23.17:326][454]LogHttp:Display: Sleeping 0.5s to wait for 1 outstanding Http requests.
[2017.10.27-01.23.17:826][454]LogHttp:Display: Sleeping 0.5s to wait for 1 outstanding Http requests.
[2017.10.27-01.23.18:326][454]LogHttp:Display: Sleeping 0.5s to wait for 1 outstanding Http requests.
[2017.10.27-01.23.18:826][454]LogHttp:Display: Sleeping 0.5s to wait for 1 outstanding Http requests.
[2017.10.27-01.23.19:327][454]LogHttp:Display: Sleeping 0.5s to wait for 1 outstanding Http requests.
[2017.10.27-01.23.19:827][454]LogHttp:Display: Sleeping 0.5s to wait for 1 outstanding Http requests.
[2017.10.27-01.23.20:327][454]LogHttp:Display: Sleeping 0.5s to wait for 1 outstanding Http requests.
[2017.10.27-01.23.20:827][454]LogHttp:Display: Sleeping 0.5s to wait for 1 outstanding Http requests.
[2017.10.27-01.23.21:328][454]LogHttp:Display: Sleeping 0.5s to wait for 1 outstanding Http requests.
[2017.10.27-01.23.21:828][454]LogHttp:Display: Sleeping 0.5s to wait for 1 outstanding Http requests.
[2017.10.27-01.23.22:328][454]LogHttp:Display: Sleeping 0.5s to wait for 1 outstanding Http requests.
[2017.10.27-01.23.22:829][454]LogHttp:Display: Sleeping 0.5s to wait for 1 outstanding Http requests.
[2017.10.27-01.23.23:329][454]LogHttp:Display: Sleeping 0.5s to wait for 1 outstanding Http requests.
[2017.10.27-01.23.23:829][454]LogHttp:Display: Sleeping 0.5s to wait for 1 outstanding Http requests.
[2017.10.27-01.23.24:329][454]LogHttp:Display: Sleeping 0.5s to wait for 1 outstanding Http requests.
[2017.10.27-01.23.24:830][454]LogHttp:Display: Sleeping 0.5s to wait for 1 outstanding Http requests.
[2017.10.27-01.23.25:330][454]LogHttp:Display: Sleeping 0.5s to wait for 1 outstanding Http requests.
[2017.10.27-01.23.25:830][454]LogHttp:Display: Sleeping 0.5s to wait for 1 outstanding Http requests.
[2017.10.27-01.23.26:331][454]LogHttp:Display: Sleeping 0.5s to wait for 1 outstanding Http requests.
[2017.10.27-01.23.26:831][454]LogHttp:Display: Sleeping 0.5s to wait for 1 outstanding Http requests.
[2017.10.27-01.23.27:331][454]LogHttp:Display: Sleeping 0.5s to wait for 1 outstanding Http requests.
[2017.10.27-01.23.27:831][454]LogHttp:Display: Sleeping 0.5s to wait for 1 outstanding Http requests.
[2017.10.27-01.23.28:332][454]LogHttp:Display: Sleeping 0.5s to wait for 1 outstanding Http requests.
[2017.10.27-01.23.28:832][454]LogHttp:Display: Sleeping 0.5s to wait for 1 outstanding Http requests.
[2017.10.27-01.23.29:333][454]LogHttp:Display: Sleeping 0.5s to wait for 1 outstanding Http requests.
[2017.10.27-01.23.29:833][454]LogHttp:Display: Sleeping 0.5s to wait for 1 outstanding Http requests.
[2017.10.27-01.23.30:334][454]LogHttp:Display: Sleeping 0.5s to wait for 1 outstanding Http requests.
[2017.10.27-01.23.30:834][454]LogHttp:Display: Sleeping 0.5s to wait for 1 outstanding Http requests.
[2017.10.27-01.23.31:334][454]LogHttp:Display: Sleeping 0.5s to wait for 1 outstanding Http requests.
[2017.10.27-01.23.31:835][454]LogHttp:Display: Sleeping 0.5s to wait for 1 outstanding Http requests.
[2017.10.27-01.23.32:335][454]LogHttp:Display: Sleeping 0.5s to wait for 1 outstanding Http requests.
[2017.10.27-01.23.32:836][454]LogHttp:Display: Sleeping 0.5s to wait for 1 outstanding Http requests.
[2017.10.27-01.23.33:336][454]LogHttp:Display: Sleeping 0.5s to wait for 1 outstanding Http requests.
[2017.10.27-01.23.33:837][454]LogHttp:Display: Sleeping 0.5s to wait for 1 outstanding Http requests.
[2017.10.27-01.23.34:337][454]LogHttp:Display: Sleeping 0.5s to wait for 1 outstanding Http requests.
[2017.10.27-01.23.34:837][454]LogHttp:Display: Sleeping 0.5s to wait for 1 outstanding Http requests.
[2017.10.27-01.23.35:338][454]LogHttp:Display: Sleeping 0.5s to wait for 1 outstanding Http requests.
[2017.10.27-01.23.35:838][454]LogHttp:Display: Sleeping 0.5s to wait for 1 outstanding Http requests.
[2017.10.27-01.23.36:338][454]LogHttp:Display: Sleeping 0.5s to wait for 1 outstanding Http requests.
[2017.10.27-01.23.36:838][454]LogHttp:Display: Sleeping 0.5s to wait for 1 outstanding Http requests.
[2017.10.27-01.23.37:339][454]LogHttp:Display: Sleeping 0.5s to wait for 1 outstanding Http requests.
[2017.10.27-01.23.37:839][454]LogHttp:Display: Sleeping 0.5s to wait for 1 outstanding Http requests.
[2017.10.27-01.23.38:339][454]LogHttp:Display: Sleeping 0.5s to wait for 1 outstanding Http requests.
[2017.10.27-01.23.38:840][454]LogHttp:Display: Sleeping 0.5s to wait for 1 outstanding Http requests.
[2017.10.27-01.23.39:340][454]LogHttp:Display: Sleeping 0.5s to wait for 1 outstanding Http requests.
[2017.10.27-01.23.39:840][454]LogHttp:Display: Sleeping 0.5s to wait for 1 outstanding Http requests.
[2017.10.27-01.23.40:341][454]LogHttp:Display: Sleeping 0.5s to wait for 1 outstanding Http requests.
[2017.10.27-01.23.40:841][454]LogHttp:Display: Sleeping 0.5s to wait for 1 outstanding Http requests.
[2017.10.27-01.23.41:341][454]LogHttp:Display: Sleeping 0.5s to wait for 1 outstanding Http requests.
[2017.10.27-01.23.41:841][454]LogHttp:Display: Sleeping 0.5s to wait for 1 outstanding Http requests.
[2017.10.27-01.23.42:341][454]LogHttp:Display: Sleeping 0.5s to wait for 1 outstanding Http requests.
[2017.10.27-01.23.42:841][454]LogHttp:Display: Sleeping 0.5s to wait for 1 outstanding Http requests.
[2017.10.27-01.23.43:342][454]LogHttp:Display: Sleeping 0.5s to wait for 1 outstanding Http requests.
[2017.10.27-01.23.43:842][454]LogHttp:Display: Sleeping 0.5s to wait for 1 outstanding Http requests.
[2017.10.27-01.23.44:342][454]LogHttp:Display: Sleeping 0.5s to wait for 1 outstanding Http requests.
[2017.10.27-01.23.44:843][454]LogHttp:Display: Sleeping 0.5s to wait for 1 outstanding Http requests.
[2017.10.27-01.23.45:343][454]LogHttp:Display: Sleeping 0.5s to wait for 1 outstanding Http requests.
[2017.10.27-01.23.45:843][454]LogHttp:Display: Sleeping 0.5s to wait for 1 outstanding Http requests.
[2017.10.27-01.23.46:344][454]LogHttp:Display: Sleeping 0.5s to wait for 1 outstanding Http requests.
[2017.10.27-01.23.46:844][454]LogHttp:Display: Sleeping 0.5s to wait for 1 outstanding Http requests.
[2017.10.27-01.23.47:344][454]LogHttp:Display: Sleeping 0.5s to wait for 1 outstanding Http requests.
[2017.10.27-01.23.47:845][454]LogHttp:Display: Sleeping 0.5s to wait for 1 outstanding Http requests.
[2017.10.27-01.23.48:345][454]LogHttp:Display: Sleeping 0.5s to wait for 1 outstanding Http requests.
[2017.10.27-01.23.48:845][454]LogHttp:Display: Sleeping 0.5s to wait for 1 outstanding Http requests.
[2017.10.27-01.23.49:346][454]LogHttp:Display: Sleeping 0.5s to wait for 1 outstanding Http requests.
[2017.10.27-01.23.49:846][454]LogHttp:Display: Sleeping 0.5s to wait for 1 outstanding Http requests.
[2017.10.27-01.23.50:346][454]LogHttp:Display: Sleeping 0.5s to wait for 1 outstanding Http requests.
[2017.10.27-01.23.50:847][454]LogHttp:Display: Sleeping 0.5s to wait for 1 outstanding Http requests.
[2017.10.27-01.23.51:347][454]LogHttp:Display: Sleeping 0.5s to wait for 1 outstanding Http requests.
[2017.10.27-01.23.51:847][454]LogHttp:Display: Sleeping 0.5s to wait for 1 outstanding Http requests.
[2017.10.27-01.23.52:348][454]LogHttp:Display: Sleeping 0.5s to wait for 1 outstanding Http requests.
[2017.10.27-01.23.52:848][454]LogHttp:Display: Sleeping 0.5s to wait for 1 outstanding Http requests.
[2017.10.27-01.23.53:348][454]LogHttp:Display: Sleeping 0.5s to wait for 1 outstanding Http requests.
[2017.10.27-01.23.53:848][454]LogHttp:Display: Sleeping 0.5s to wait for 1 outstanding Http requests.
[2017.10.27-01.23.54:349][454]LogHttp:Display: Sleeping 0.5s to wait for 1 outstanding Http requests.
[2017.10.27-01.23.54:849][454]LogHttp:Display: Sleeping 0.5s to wait for 1 outstanding Http requests.
[2017.10.27-01.23.55:349][454]LogHttp:Display: Sleeping 0.5s to wait for 1 outstanding Http requests.
[2017.10.27-01.23.55:849][454]LogHttp:Display: Sleeping 0.5s to wait for 1 outstanding Http requests.
[2017.10.27-01.23.56:350][454]LogHttp:Display: Sleeping 0.5s to wait for 1 outstanding Http requests.
[2017.10.27-01.23.56:851][454]LogHttp:Display: Sleeping 0.5s to wait for 1 outstanding Http requests.
[2017.10.27-01.23.57:351][454]LogHttp:Display: Sleeping 0.5s to wait for 1 outstanding Http requests.
[2017.10.27-01.23.57:852][454]LogHttp:Display: Sleeping 0.5s to wait for 1 outstanding Http requests.
[2017.10.27-01.23.58:352][454]LogHttp:Display: Sleeping 0.5s to wait for 1 outstanding Http requests.
[2017.10.27-01.23.58:852][454]LogHttp:Display: Sleeping 0.5s to wait for 1 outstanding Http requests.
[2017.10.27-01.23.59:353][454]LogHttp:Display: Sleeping 0.5s to wait for 1 outstanding Http requests.
[2017.10.27-01.23.59:853][454]LogHttp:Display: Sleeping 0.5s to wait for 1 outstanding Http requests.
[2017.10.27-01.24.00:353][454]LogHttp:Display: Sleeping 0.5s to wait for 1 outstanding Http requests.
[2017.10.27-01.24.00:853][454]LogHttp:Display: Sleeping 0.5s to wait for 1 outstanding Http requests.
[2017.10.27-01.24.01:354][454]LogHttp:Display: Sleeping 0.5s to wait for 1 outstanding Http requests.
[2017.10.27-01.24.01:854][454]LogHttp:Display: Sleeping 0.5s to wait for 1 outstanding Http requests.
[2017.10.27-01.24.02:354][454]LogHttp:Display: Sleeping 0.5s to wait for 1 outstanding Http requests.
[2017.10.27-01.24.02:855][454]LogHttp:Display: Sleeping 0.5s to wait for 1 outstanding Http requests.
[2017.10.27-01.24.03:355][454]LogHttp:Display: Sleeping 0.5s to wait for 1 outstanding Http requests.
[2017.10.27-01.24.03:856][454]LogHttp:Display: Sleeping 0.5s to wait for 1 outstanding Http requests.
[2017.10.27-01.24.04:356][454]LogHttp:Display: Sleeping 0.5s to wait for 1 outstanding Http requests.
[2017.10.27-01.24.04:856][454]LogHttp:Display: Sleeping 0.5s to wait for 1 outstanding Http requests.
[2017.10.27-01.24.05:357][454]LogHttp:Display: Sleeping 0.5s to wait for 1 outstanding Http requests.
[2017.10.27-01.24.05:857][454]LogHttp:Display: Sleeping 0.5s to wait for 1 outstanding Http requests.
[2017.10.27-01.24.06:358][454]LogHttp:Display: Sleeping 0.5s to wait for 1 outstanding Http requests.
[2017.10.27-01.24.06:858][454]LogHttp:Display: Sleeping 0.5s to wait for 1 outstanding Http requests.
[2017.10.27-01.24.07:358][454]LogHttp:Display: Sleeping 0.5s to wait for 1 outstanding Http requests.
[2017.10.27-01.24.07:859][454]LogHttp:Display: Sleeping 0.5s to wait for 1 outstanding Http requests.
[2017.10.27-01.24.08:359][454]LogHttp:Display: Sleeping 0.5s to wait for 1 outstanding Http requests.
[2017.10.27-01.24.08:859][454]LogHttp:Display: Sleeping 0.5s to wait for 1 outstanding Http requests.
[2017.10.27-01.24.09:360][454]LogHttp:Display: Sleeping 0.5s to wait for 1 outstanding Http requests.
[2017.10.27-01.24.09:860][454]LogHttp:Display: Sleeping 0.5s to wait for 1 outstanding Http requests.
[2017.10.27-01.24.10:360][454]LogHttp:Display: Sleeping 0.5s to wait for 1 outstanding Http requests.
[2017.10.27-01.24.10:860][454]LogHttp:Display: Sleeping 0.5s to wait for 1 outstanding Http requests.
[2017.10.27-01.24.11:361][454]LogHttp:Display: Sleeping 0.5s to wait for 1 outstanding Http requests.
[2017.10.27-01.24.11:861][454]LogHttp:Display: Sleeping 0.5s to wait for 1 outstanding Http requests.
[2017.10.27-01.24.12:361][454]LogHttp:Display: Sleeping 0.5s to wait for 1 outstanding Http requests.
[2017.10.27-01.24.12:862][454]LogHttp:Display: Sleeping 0.5s to wait for 1 outstanding Http requests.
[2017.10.27-01.24.13:362][454]LogHttp:Display: Sleeping 0.5s to wait for 1 outstanding Http requests.
[2017.10.27-01.24.13:862][454]LogHttp:Display: Sleeping 0.5s to wait for 1 outstanding Http requests.
[2017.10.27-01.24.14:362][454]LogHttp:Display: Sleeping 0.5s to wait for 1 outstanding Http requests.
[2017.10.27-01.24.14:863][454]LogHttp:Display: Sleeping 0.5s to wait for 1 outstanding Http requests.
[2017.10.27-01.24.15:363][454]LogHttp:Display: Sleeping 0.5s to wait for 1 outstanding Http requests.
[2017.10.27-01.24.15:863][454]LogHttp:Display: Sleeping 0.5s to wait for 1 outstanding Http requests.
[2017.10.27-01.24.16:364][454]LogHttp:Display: Sleeping 0.5s to wait for 1 outstanding Http requests.
[2017.10.27-01.24.16:864][454]LogHttp:Display: Sleeping 0.5s to wait for 1 outstanding Http requests.
[2017.10.27-01.24.17:364][454]LogHttp:Display: Sleeping 0.5s to wait for 1 outstanding Http requests.
[2017.10.27-01.24.17:864][454]LogHttp:Display: Sleeping 0.5s to wait for 1 outstanding Http requests.
[2017.10.27-01.24.18:364][454]LogHttp:Display: Sleeping 0.5s to wait for 1 outstanding Http requests.
[2017.10.27-01.24.18:864][454]LogHttp:Display: Sleeping 0.5s to wait for 1 outstanding Http requests.
[2017.10.27-01.24.19:365][454]LogHttp:Display: Sleeping 0.5s to wait for 1 outstanding Http requests.
[2017.10.27-01.24.19:865][454]LogHttp:Display: Sleeping 0.5s to wait for 1 outstanding Http requests.
[2017.10.27-01.24.20:366][454]LogHttp:Display: Sleeping 0.5s to wait for 1 outstanding Http requests.
[2017.10.27-01.24.20:866][454]LogHttp:Display: Sleeping 0.5s to wait for 1 outstanding Http requests.
[2017.10.27-01.24.21:366][454]LogHttp:Display: Sleeping 0.5s to wait for 1 outstanding Http requests.
[2017.10.27-01.24.21:867][454]LogHttp:Display: Sleeping 0.5s to wait for 1 outstanding Http requests.
[2017.10.27-01.24.22:367][454]LogHttp:Display: Sleeping 0.5s to wait for 1 outstanding Http requests.
[2017.10.27-01.24.22:868][454]LogHttp:Display: Sleeping 0.5s to wait for 1 outstanding Http requests.
[2017.10.27-01.24.23:368][454]LogHttp:Display: Sleeping 0.5s to wait for 1 outstanding Http requests.
[2017.10.27-01.24.23:869][454]LogHttp:Display: Sleeping 0.5s to wait for 1 outstanding Http requests.
[2017.10.27-01.24.24:369][454]LogHttp:Display: Sleeping 0.5s to wait for 1 outstanding Http requests.
[2017.10.27-01.24.24:870][454]LogHttp:Display: Sleeping 0.5s to wait for 1 outstanding Http requests.
[2017.10.27-01.24.25:370][454]LogHttp:Display: Sleeping 0.5s to wait for 1 outstanding Http requests.
[2017.10.27-01.24.25:871][454]LogHttp:Display: Sleeping 0.5s to wait for 1 outstanding Http requests.
[2017.10.27-01.24.26:372][454]LogHttp:Display: Sleeping 0.5s to wait for 1 outstanding Http requests.
[2017.10.27-01.24.26:872][454]LogHttp:Display: Sleeping 0.5s to wait for 1 outstanding Http requests.
[2017.10.27-01.24.27:372][454]LogHttp:Display: Sleeping 0.5s to wait for 1 outstanding Http requests.
[2017.10.27-01.24.27:873][454]LogHttp:Display: Sleeping 0.5s to wait for 1 outstanding Http requests.
[2017.10.27-01.24.28:373][454]LogHttp:Display: Sleeping 0.5s to wait for 1 outstanding Http requests.
[2017.10.27-01.24.28:874][454]LogHttp:Display: Sleeping 0.5s to wait for 1 outstanding Http requests.
[2017.10.27-01.24.29:374][454]LogHttp:Display: Sleeping 0.5s to wait for 1 outstanding Http requests.
[2017.10.27-01.24.29:874][454]LogHttp:Display: Sleeping 0.5s to wait for 1 outstanding Http requests.
[2017.10.27-01.24.30:375][454]LogHttp:Display: Sleeping 0.5s to wait for 1 outstanding Http requests.
[2017.10.27-01.24.30:875][454]LogHttp:Display: Sleeping 0.5s to wait for 1 outstanding Http requests.
[2017.10.27-01.24.31:375][454]LogHttp:Display: Sleeping 0.5s to wait for 1 outstanding Http requests.
[2017.10.27-01.24.31:876][454]LogHttp:Display: Sleeping 0.5s to wait for 1 outstanding Http requests.
[2017.10.27-01.24.32:376][454]LogHttp:Display: Sleeping 0.5s to wait for 1 outstanding Http requests.
[2017.10.27-01.24.32:877][454]LogHttp:Display: Sleeping 0.5s to wait for 1 outstanding Http requests.
[2017.10.27-01.24.33:377][454]LogHttp:Display: Sleeping 0.5s to wait for 1 outstanding Http requests.
[2017.10.27-01.24.33:877][454]LogHttp:Display: Sleeping 0.5s to wait for 1 outstanding Http requests.
[2017.10.27-01.24.34:378][454]LogHttp:Display: Sleeping 0.5s to wait for 1 outstanding Http requests.
[2017.10.27-01.24.34:878][454]LogHttp:Display: Sleeping 0.5s to wait for 1 outstanding Http requests.
